sim/xrun.log
xrun(64): 24.03-s005: (c) Copyright 1995-2024 Cadence Design Systems, Inc.
TOOL:	xrun(64)	24.03-s005: Started on Sep 27, 2025 at 17:47:29 -03
xrun
	../tb/tb.sv
	../rtl/ShiftMatrix.sv
	../rtl/accumulator.sv
	../rtl/systolicMatrixMultiply.sv
	-mce_sim_thread_count 32
	-mce_build_thread_count 32
	-access +rw
Recompiling... reason: file '../tb/tb.sv' is newer than expected.
	expected: Sat Sep 27 17:42:36 2025
	actual:   Sat Sep 27 17:47:27 2025
file: ../tb/tb.sv
	module worklib.tb:sv
		errors: 0, warnings: 0
		Caching library 'worklib' ....... Done
	Elaborating the design hierarchy:
	Top level design units:
		tb
	Building instance overlay tables: .................... Done
	Generating native compiled code:
		worklib.tb:sv <0x4a8007d9>
			streams:  15, words: 23897
	Building instance specific data structures.
	Loading native compiled code:     .................... Done
	Design hierarchy summary:
		                 Instances  Unique
		Modules:               104       4
		Registers:             770      64
		Scalar wires:          108       -
		Vectored wires:      1,694       -
		Always blocks:         105       5
		Initial blocks:          1       1
		Cont. assignments:     886      15
		Pseudo assignments:    612       -
		Process Clocks:        103       2
	Writing initial simulation snapshot: worklib.tb:sv
Loading snapshot worklib.tb:sv .................... Done
SVSEED default: 1
xcelium> source /usr/local/cadence/XCELIUM2403/tools/xcelium/files/xmsimrc
xcelium> run
Operadorando 1

10  13  12   2  14   8   2   7  15   9  

11   4  13  10   4   9  14   1   1  11  

14  10  15  13   3  10   1   1  10  14  

 7   7  13  11  15   1  13   6   5   3  

11  12  13   7   2  10   5   9   4   3  

13   5   1   6   6   9   5  12  14   9  

 5  15   6   1  13   2  10  15   4   7  

 7   9   1  13  12   5   1   8  13  14  

14   9  10  15   1   6   7  11   7   6  

 4   8   1   6   3   1   9  12   4   4  

Operadorando 2

 4   9   9  13   8   7   1  13   4   1  

 1  11   8   2  12   2   9   3   8  15  

12   1  13  15   3  13  11   5   6  12  

 7   3  11   1  14  15   5   4  14   8  

 1  13   5  14  15  14   8   2   2   3  

12  13   5   7  12   1   7   2   1   6  

 1   7  10   9   1  12   8   6   7   3  

10  15   7   6   5  13   8  11   5  11  

13  15  12  12   3   6  15   6  13   7  

 4   2   5  13   4   5   6  14  13   3  

Resultado DUT

  624    899    776    947    724    736    788    586    641    670  

  467    505    689    762    549    711    536    541    570    466  

  657    659    816    869    716    715    678    638    748    643  

  445    656    736    780    640    887    640    469    572    556  

  542    657    677    653    593    629    573    491    501    620  

  568    829    658    749    592    642    610    615    597    492  

  391    783    617    701    596    716    631    521    506    605  

  518    773    668    735    725    712    646    577    715    548  

  595    702    789    712    654    790    615    622    679    637  

  290    506    441    391    369    498    400    379    404    398  

Resultado REFMOD

  624    899    776    947    724    736    788    586    641    670  

  467    505    689    762    549    711    536    541    570    466  

  657    659    816    869    716    715    678    638    748    643  

  445    656    736    780    640    887    640    469    572    556  

  542    657    677    653    593    629    573    491    501    620  

  568    829    658    749    592    642    610    615    597    492  

  391    783    617    701    596    716    631    521    506    605  

  518    773    668    735    725    712    646    577    715    548  

  595    702    789    712    654    790    615    622    679    637  

  290    506    441    391    369    498    400    379    404    398  

Test(%)

Sucess:          100  %
Fail  :          0  %
Simulation complete via $finish(1) at time 112 NS + 0
../tb/tb.sv:124     #1$finish;
xcelium> exit
TOOL:	xrun(64)	24.03-s005: Exiting on Sep 27, 2025 at 17:47:39 -03  (total: 00:00:10)
