sim/xrun.log
xrun(64): 24.03-s005: (c) Copyright 1995-2024 Cadence Design Systems, Inc.
TOOL:	xrun(64)	24.03-s005: Started on Sep 25, 2025 at 15:37:39 -03
xrun
	../tb/tb.sv
	../rtl/ShiftMatrix.sv
	../rtl/accumulator.sv
	../rtl/systolicMatrixMultiply.sv
	-mce_build_thread_count 32
	-access +rw
file: ../tb/tb.sv
	module worklib.tb:sv
		errors: 0, warnings: 0
file: ../rtl/ShiftMatrix.sv
	module worklib.shiftMatrix:sv
		errors: 0, warnings: 0
file: ../rtl/accumulator.sv
	module worklib.accumulator_cells:sv
		errors: 0, warnings: 0
file: ../rtl/systolicMatrixMultiply.sv
	module worklib.systolicMatrixMultiply:sv
		errors: 0, warnings: 0
		Caching library 'worklib' ....... Done
	Elaborating the design hierarchy:
	Top level design units:
		tb
	Building instance overlay tables: 
    assign shiftMatrixOut =  current_counter < 2*SIZE -1? UnpackVecMout[current_counter] : 0; 
                                                                                      |
xmelab: *W,BIGWIX (../rtl/ShiftMatrix.sv,88|86): Memory index truncation.
.................... Done
	Generating native compiled code:
		worklib.accumulator_cells:sv <0x7eaf62c5>
			streams:   6, words:  2001
		worklib.tb:sv <0x7bb1a51d>
			streams:  12, words: 18642
		worklib.shiftMatrix:sv <0x11266d9a>
			streams:  47, words: 35757
		worklib.systolicMatrixMultiply:sv <0x1cd3c23b>
			streams: 145, words: 56586
	Building instance specific data structures.
	Loading native compiled code:     .................... Done
	Design hierarchy summary:
		                 Instances  Unique
		Modules:               404       4
		Registers:           2,462      56
		Scalar wires:            2       -
		Vectored wires:      6,573       -
		Always blocks:         403       3
		Initial blocks:          1       1
		Cont. assignments:   3,364      13
		Pseudo assignments:  2,009       -
		Process Clocks:        402       2
	Writing initial simulation snapshot: worklib.tb:sv
Loading snapshot worklib.tb:sv .................... Done
SVSEED default: 1
xcelium> source /usr/local/cadence/XCELIUM2403/tools/xcelium/files/xmsimrc
xcelium> run
 
 6  11  10   4  13   3   6  15  14   6  11  10  14   8   1   7  12   3  10   8  

 2   4   4   4  14   9   1   8  10   8  15  13  13   9   1   7   2  15   6  15  

12  15   8   2  12   2   4   7   2   2   6   7  14   6   1   3  14  11   8   7  

 5   1   2   4   7   4   4   2   5  14   6   5  12   4  11   2  15  14  11   3  

 6   2   7  12  14  10   8   9  13  12   7   2  14   8   8  14   4   5  14  10  

 9   5   6  12   3   5   1  12   4   2  13   2   4   3  15   2  10   1   9   9  

 9   4  12  13   3  15  13   5  13   2  11   9   1   8  15   1  15  14   3   9  

 3  10   3  12  10  10   5  10   8   3   3  13  14   2   3   7   6  13   1  13  

 6   9  10   8  12  15   3   4  11  10  11   1   4  15   1  10   5  15   7  10  

10   6   4   2   9   6  12   2  11   6   8  13  11  12   6   6   1   4  12  14  

 5   6   7   7  13   1   2  12   6   8   3  12   4  11   7   3  14  11   4   1  

 9   2  14   3  13  15   1   2   8  12   2   1  10  10   4  12   7   5   6   3  

 8  15   5   7   1   9   6   8   8   7   1  14   9   8   1   8  13  10   4  14  

 2  12   6   8  13   7  12   9  12  13   2  13   3   7   5   7   4  11   1   3  

13   3   5   5  12  14  13   7  11  14  13   7  15   5   1   4   8   8  13   9  

 9  14   8   9   9   7   5  14  11  15   7   7  14   1  12  13  10  12   2   4  

 1   3   7   6   6   7   4   2   5  10  14  11  10   2  12   1   4  15  15   9  

 3   5  12   4   3  12  15  15   4   2  10   9  12  13   7   1   2  11   3  10  

14   3   2   5  13   6   5   8   4   7  14   1  11   6   8  15   6  13   1  14  

 9  12  15   4   4   3   5   6   4   4  11   4   2   7  10   3   2   6   8  13  

 
 6  15   2  12  15   1  15  14  10  11   6  15  14  15   4   5  15  15   1   8  

 1   9  12  15   4   6  14  14   4  10  13   8  12   1   1  12   1   6   1   4  

 4   8   1  10   2   2   6   3   4   5  11  13   5   7  15   3   3   3  11   9  

 6  13   7   5   7   3  12   3   9   7   6   4   9   4  11  14   4   8   3   8  

 1  14  10   2  11  11  11  14   7   6   2  13  12   7  15  15  11   4   2  13  

 4   7   2   3   8   3   3  14   3  15   4  14   9   4  12   7  10   1   3   9  

 6  10   9   7  10   1   9   4  11   4   5  10  14   1   6  10  12  12   3  13  

 4  13  11  12   5   7  14   8   8   6   6  12  12   3   3   8  15   4  11  13  

11   7  11  14   7   9   6   7  13   2  11  14   7  15   6  11  15   7  13   6  

14   6   8  14  13  13  14  15  13   5   2  10   9   1  13  11   5   6  11  11  

 6  14  12   5  14  14  13   2  10   4  10  14   4  13  10   7   1   5   3   7  

13  13   6   5   1  12   7   1   4  13   3  14  11  11  10  11   8   2  10   6  

15  12  14  11   9   8  13   5   4  13  10   3   9   2  10  13  12  10  15   5  

13   6   5   1   1   5  13   8  10   3   6  14  11   5  14   7  13   7  12   2  

 3   6  12   5   4  11   1  11   4  11   2   8  10   6   9   5   2  11   9   9  

 4  14   2   8   5  13   4   7  13   5  13   1  13   1   5  13  13  10   3   6  

 8  15   4  15  15  11   5   5   7   7  12  13   7   4  10  15   2  10  10  12  

 4   6   8  15   6   4   1   5   9   2   7  11  13   9   7   5  15   7  14   6  

11  14   3   7   7  12   2   1   6  12  14  11   8   9  11  12  10   5   7   4  

 7   4  13   1  13   1   1  10   5  10  15  14   4  15   3  15   6  10  13  10  

 
 1285   1887   1399   1525   1369   1371   1555   1227   1318   1265   1483   1905   1605   1176   1484   1820   1530   1162   1410   1389  

 1215   1598   1365   1219   1277   1264   1285   1169   1221   1178   1279   1803   1470   1239   1444   1649   1492   1005   1401   1233  

  976   1587   1118   1349   1198   1020   1278   1092    999   1137   1247   1576   1415    962   1196   1479   1236   1056   1117   1124  

 1061   1349   1025   1236   1167   1124    982    963   1016    996    978   1394   1243    845   1263   1331   1096    988   1182   1072  

 1325   1856   1381   1406   1456   1382   1450   1375   1452   1335   1431   1816   1699   1149   1645   1884   1677   1288   1402   1455  

  806   1377   1024   1009   1077    957   1037    925    911   1034   1046   1392   1119    941   1070   1228    902    953    936   1069  

 1139   1703   1280   1432   1383   1119   1236   1232   1312   1278   1317   2040   1623   1304   1555   1595   1412   1272   1376   1467  

 1024   1520   1270   1247   1134   1018   1189   1121   1059   1200   1182   1533   1463    982   1207   1611   1360   1018   1233   1209  

 1124   1601   1200   1342   1315   1164   1340   1364   1351   1131   1363   1877   1572   1156   1548   1622   1513   1093   1285   1276  

 1246   1557   1237   1131   1223   1125   1256   1148   1191   1235   1250   1751   1490   1197   1341   1585   1460   1145   1236   1168  

  978   1463   1028   1231   1000   1102   1192   1021   1056    947    962   1549   1378    874   1289   1372   1199    913   1170   1143  

 1001   1399    869   1151   1108   1031   1124   1212   1085   1051   1062   1500   1329    852   1418   1347   1297    939   1085   1119  

 1164   1562   1180   1421   1195   1046   1256   1198   1147   1253   1346   1694   1522   1025   1208   1646   1357   1126   1302   1207  

 1027   1475   1196   1324   1065   1118   1298   1215   1218   1021   1024   1619   1557    883   1312   1528   1364    977   1156   1258  

 1402   1906   1382   1514   1649   1332   1556   1383   1432   1403   1392   2032   1708   1273   1635   1831   1689   1281   1380   1500  

 1230   1899   1492   1786   1450   1439   1593   1505   1439   1361   1406   1825   1825   1071   1506   1833   1569   1333   1448   1519  

 1097   1423   1182   1156   1144   1187    997    938   1025   1147   1125   1577   1280   1083   1370   1392   1124    942   1250   1110  

 1082   1462   1248   1171   1075    931   1267   1053   1090   1143   1151   1731   1472    986   1335   1367   1411   1025   1325   1248  

  999   1639   1273   1255   1427   1153   1301   1303   1286   1121   1243   1639   1536   1126   1275   1560   1461   1252   1167   1302  

  820   1276   1032   1061    998    868   1058   1006    942    995   1148   1513   1192   1013   1099   1193    981    943   1007   1032  

 
 1285   1887   1399   1525   1369   1371   1555   1227   1318   1265   1483   1905   1605   1176   1484   1820   1530   1162   1410   1389  

 1215   1598   1365   1219   1277   1264   1285   1169   1221   1178   1279   1803   1470   1239   1444   1649   1492   1005   1401   1233  

  976   1587   1118   1349   1198   1020   1278   1092    999   1137   1247   1576   1415    962   1196   1479   1236   1056   1117   1124  

 1061   1349   1025   1236   1167   1124    982    963   1016    996    978   1394   1243    845   1263   1331   1096    988   1182   1072  

 1325   1856   1381   1406   1456   1382   1450   1375   1452   1335   1431   1816   1699   1149   1645   1884   1677   1288   1402   1455  

  806   1377   1024   1009   1077    957   1037    925    911   1034   1046   1392   1119    941   1070   1228    902    953    936   1069  

 1139   1703   1280   1432   1383   1119   1236   1232   1312   1278   1317   2040   1623   1304   1555   1595   1412   1272   1376   1467  

 1024   1520   1270   1247   1134   1018   1189   1121   1059   1200   1182   1533   1463    982   1207   1611   1360   1018   1233   1209  

 1124   1601   1200   1342   1315   1164   1340   1364   1351   1131   1363   1877   1572   1156   1548   1622   1513   1093   1285   1276  

 1246   1557   1237   1131   1223   1125   1256   1148   1191   1235   1250   1751   1490   1197   1341   1585   1460   1145   1236   1168  

  978   1463   1028   1231   1000   1102   1192   1021   1056    947    962   1549   1378    874   1289   1372   1199    913   1170   1143  

 1001   1399    869   1151   1108   1031   1124   1212   1085   1051   1062   1500   1329    852   1418   1347   1297    939   1085   1119  

 1164   1562   1180   1421   1195   1046   1256   1198   1147   1253   1346   1694   1522   1025   1208   1646   1357   1126   1302   1207  

 1027   1475   1196   1324   1065   1118   1298   1215   1218   1021   1024   1619   1557    883   1312   1528   1364    977   1156   1258  

 1402   1906   1382   1514   1649   1332   1556   1383   1432   1403   1392   2032   1708   1273   1635   1831   1689   1281   1380   1500  

 1230   1899   1492   1786   1450   1439   1593   1505   1439   1361   1406   1825   1825   1071   1506   1833   1569   1333   1448   1519  

 1097   1423   1182   1156   1144   1187    997    938   1025   1147   1125   1577   1280   1083   1370   1392   1124    942   1250   1110  

 1082   1462   1248   1171   1075    931   1267   1053   1090   1143   1151   1731   1472    986   1335   1367   1411   1025   1325   1248  

  999   1639   1273   1255   1427   1153   1301   1303   1286   1121   1243   1639   1536   1126   1275   1560   1461   1252   1167   1302  

  820   1276   1032   1061    998    868   1058   1006    942    995   1148   1513   1192   1013   1099   1193    981    943   1007   1032  

Test Pass:  400
Test Fail:          0
Simulation complete via $finish(1) at time 1013 NS + 0
../tb/tb.sv:130         #1$finish;
xcelium> exit
TOOL:	xrun(64)	24.03-s005: Exiting on Sep 25, 2025 at 15:37:50 -03  (total: 00:00:11)
