sim/xrun.log
xrun(64): 24.03-s005: (c) Copyright 1995-2024 Cadence Design Systems, Inc.
TOOL:	xrun(64)	24.03-s005: Started on Sep 30, 2025 at 00:33:18 -03
xrun
	../tb/tb.sv
	../rtl/ShiftMatrix.sv
	../rtl/accumulator.sv
	../rtl/systolicMatrixMultiply.sv
	-mce_sim_thread_count 32
	-mce_build_thread_count 32
	-access +rw
Recompiling... reason: file '../tb/tb.sv' is newer than expected.
	expected: Tue Sep 30 00:32:18 2025
	actual:   Tue Sep 30 00:33:14 2025
file: ../tb/tb.sv
	module worklib.tb:sv
		errors: 0, warnings: 0
		Caching library 'worklib' ....... Done
	Elaborating the design hierarchy:
	Top level design units:
		tb
	Building instance overlay tables: 
    assign shiftMatrixOut   =   (current_counter < 2*SIZE-1 ) & ena &ena_cells ? UnpackVecMout[current_counter] : 0; 
                                                                                                             |
xmelab: *W,BIGWIX (../rtl/ShiftMatrix.sv,95|109): Memory index truncation.
.................... Done
	Generating native compiled code:
		worklib.tb:sv <0x58c6f93d>
			streams:  17, words: 22765
		worklib.shiftMatrix:sv <0x550ab49d>
			streams:  73, words: 54181
		worklib.systolicMatrixMultiply:sv <0x5764dc0b>
			streams: 271, words: 103459
	Building instance specific data structures.
	Loading native compiled code:     .................... Done
	Design hierarchy summary:
		                  Instances  Unique
		Modules:              1,028       4
		Registers:            6,232      80
		Scalar wires:         1,037       -
		Vectored wires:      16,655       -
		Always blocks:        1,031       7
		Initial blocks:           1       1
		Cont. assignments:    8,458      18
		Pseudo assignments:   6,157       -
		Process Clocks:       1,027       2
	Writing initial simulation snapshot: worklib.tb:sv
Loading snapshot worklib.tb:sv .................... Done
SVSEED default: 1
xcelium> source /usr/local/cadence/XCELIUM2403/tools/xcelium/files/xmsimrc
xcelium> run
xmsim: *W,LMTMSG: packed array at "tb.DUT_MatrixMultiplyM0.aa_shiftM.A26" of 8064 elements exceeds limit of 4096 - not probed
 Use 'probe -create -packed 8064' to adjust limit.
xmsim: *W,LMTMSG: packed array at "tb.DUT_MatrixMultiplyM0.bb_shiftM.A26" of 8064 elements exceeds limit of 4096 - not probed
 Use 'probe -create -packed 8064' to adjust limit.
Resetando...
Operadorando 1

10  13  12   2  14   8   2   7  15   9  11   4  13  10   4   9  14   1   1  11  14  10  15  13   3  10   1   1  10  14   7   7  

13  11  15   1  13   6   5   3  11  12  13   7   2  10   5   9   4   3  13   5   1   6   6   9   5  12  14   9   5  15   6   1  

13   2  10  15   4   7   7   9   1  13  12   5   1   8  13  14  14   9  10  15   1   6   7  11   7   6   4   8   1   6   3   1  

 9  12   4   4   3   8   9   7  10   9  11   4  14   3   2  14  11  15   7   6   1   9   3  15  15   3  10  13  12   2  14   2  

 5  11   1   9   1   8   5   1  11   7  13  14   4  13   1   5  11  15  15   4  15   4   4   6  11  13  11  12   3  10  11   8  

 2  12  15  12  11   8  15   5  12   4  12   4  12   8  10   7  11   4   4  12   7   7  12  14   6   4  15   4  15  12   5   5  

 6   5   9   1   4   6  13  14  10   7   7  14   1  14   9   5  14   8  10   7   6   8   7   7   8   2  15   4   9   8   1   3  

 7   4   9   3   3   3   1  14  13   6   8   8   1   1  13   5   2   3   1   8   2   2   6   9  11   9   2   4   7   7   7   1  

14   7  14   1   4   4   8   1   9   3  13   4   4  14  11  15   8  12  15  10   5   7  10   8   9   7   9   3  10  14  13   8  

10   7   3   3   5   2  12   3   2   7  15   3   5  11   3  13  13   2  10   7   1   7   7  12   6  15   1   9   2   2   2  10  

12   4   5   1   6   6  14   3   6   1  13  15   3   3  14   9  15  15   1  10  12   3   9  15   1   7  13   1  11  13  14  12  

 9  10   3  13  11  11   1   2   3   6  13   7  13  13  10   5   2   3   5  11  10  10   1  10  14   5   2  14  11   8  12   9  

11   6  12  10   4   2   4   7   4   5   1   3   7   8   1   8  14   3   6  14   2  10   6   3   8  15   1   3  15   9   3  10  

 4  10   8   7  10  10  13  12   9   3   3   5   5   5   3   7   6   2  14   9  10   8   5   3   9   6   5   2  11   1   9   4  

 4   1   8   8   2   9   2   3   8   8  15  13   4  15  14   6   9   7   8   1  10  13   3  13   8   3  13   5   1  14   8  15  

 5   3   5  14   2   4   5   2   5   6  13   5   4   1   1  12   6   9   2   6   8  13   3   2  14   7   4  10   1  14   6   5  

14   8  12   7   8   4  13   3   2   5  10  14   9   7   2   9  14   5   8   2  13  15   3  11   3   7  10   5   8   7  10   6  

 3  10   9   9  13   8   7  15   4   1   1   5   1   2   9  10   9  13  15   7   4   1   4   7  14   4   7   6   5  14   7  13  

11  12   8  11   2  14   7   6   2   3  14   7   4   6  13   7   6  10   5   3   5  14   7  14  15  12   2  11  10  14   6   2  

 9  15  15  15   5   6   7  11   8   8  11   4   1  11   2   8   5   6  15   4  12   7  14   8  13  15  10  11   1   7  11   3  

15   9   6  15  12   1   7  15   5   1   6  15  10   8   9   2  10  11   1  10   9   2   5   6  14   3   8  11   9  15   7  13  

 9   2   8   7  15   7  11  11   2  10  14   4   2   1  12  13   3  12  10   1   8  14  12  12  12   8   2   9   3   7  15  11  

 9   8  15  12   7   4   7   1  10   8  12  14   7  14   4   6   5   9  11   7   3  12   2   6   3   6   9   6   2  15   3  10  

12   1   7   4   8   9  15   4  14   6  10   8  12   7   1   9  15  12  13  15   5  13   1   9  12  15  10   5   8   4   5   9  

15  11   4  12   3  10  13   6  15   2   1  10  13  13   1  15   9   1   2   4   1   7   1  14   3  10   6   8   6   5  13   4  

 1  15  13  15   8   5  11   6  12  11  13   6  15   8   2   8   3   9   3   7   2   2  15   3  11  12  12   1   1  14   9   5  

 9   4  10   1  10   6  14  12   2  13  12   6  13   6   5  13   7   5   4  10   7   1   3   2   3  13   5   6   1  13   7   5  

 6  13   7   3  10  12   5  12   7   9   4   5  10   5  11   2   6  12   8   3   9   6  12  13  12  14   8  11   9  15   7  11  

 2  12   4  10  15   4  11   5   2   4  12   8   7   4  15  10   5  11   5   8  11  10  12   6   1   8  12  14  12  14   5  15  

 3   7  14   2   6  10   4  14   7  11   5   1   8   1  12   7   3   7  14  14  15   5   8   1   2   5  10   7  15   9   2   1  

14  10   7  14   8   1  13   7   6   6   1  15  10  13   3   6   1  13  15   3  12  15   9   6   6  14  10  11  13   6   2   8  

15   4  14   6  11   5   9  15   6   1   9  15  13  13   8  11  13  12   7  14   5   9   6   5  15   1  10   6   1   1   4   3  

Operadorando 2

 4   9   9  13   8   7   1  13   4   1   1  11   8   2  12   2   9   3   8  15  12   1  13  15   3  13  11   5   6  12   7   3  

11   1  14  15   5   4  14   8   1  13   5  14  15  14   8   2   2   3  12  13   5   7  12   1   7   2   1   6   1   7  10   9  

 1  12   8   6   7   3  10  15   7   6   5  13   8  11   5  11  13  15  12  12   3   6  15   6  13   7   4   2   5  13   4   5  

 6  14  13   3   2  13   3  12   7   3   3   6  11   2  13  15   9  12   1  13   3   7   6  15   4  14  15  14   4  14   9  14  

 7   6   6  13   1   2  14  12  12   8   9   6  14   4   5  15   1  11  15  10  10   5   9   4   8  13  10   9   8  10  12  13  

 7   9   3  11   3   4  13   6  15   6   2   4  12  14   9   3   1  12  10   9   7   2   5   9  14  11  11   4  12  14  14   6  

 4  13  13   7   3   2  15   6   8  15   5   5   2   9   1   7   8   5   2   7   6  13   5   8  15   5   1   7  11  15  15   5  

 8   7  10  11   3  11  14   1   1  10  11   6  14   8   4  12   8  15   1   4   9  15   6  12   4  10  10   8   6   9   4  12  

 4  13   8  15   4   4  12  14  10   6  14  10   6  13  12   8   2   3  14   7  15   2   2  11  13   6   5   8   9  15   4  15  

14   8   2  15   8   8  13   7  10   8   1  12  12  14  11  11  13  15   9   4   2   9   1  12   4   5   2   4  12   5  15  15  

 3   2  12  13  13  13  11   7   6   3   7  15   2   3   3  15  11  13   8  15   6  13   6  11   3   2   8  13  13  10   4   8  

15  12  11   4   9   2   9   5  14   3   6   1   7  13  10   7   6  11   6  12   3   9   6   2  14   9  13  10  15   8  11  11  

13   1   4   3   5  10   9   4   6   2   9   9  15   1  15  15  10  11  10  15  12  11  14   5   4  12   2   5   9   7  10   8  

10  11   1  12   5  15  10   5   5   3   7   5  12  14  10  15   6  13  15   2  10   1  15   3   3  10  15   8   4  15   6  15  

12   4   1   4   6   9  14  11  15  14  12   5   7   3  14   2  10  10   4   3   3   4   4  13   2   4   8   1   9   9  12   4  

 4   5   3   9   6   5   8  15   3  10  14  13   3   4  11  11  13   9   1  12   6  10   1   7   5  12  13   7  13   3   5   2  

 3   5   6  15   5   8   5   1  15   1  10  12   1  14  10   1  13   9   8  14  15   2   7   4  14   5  13  15   3  10   9   5  

 4  12   7  11   5  12  14  10  10  10   9   1  15  13   7   8  12   9  12  15  11  13   5   3  12   8   2  15   1   2  14   5  

10  13   7  13  13   1  13   1   2   6   4   8   6  15  13   3   7   7   4   2   9  13   4   1   8   2  14   5   9   5   7   8  

10  11  11   5   1   9  10   8  10  15  15   1   4  14   6   6  15   2   1   4  15   8   2  13  10   6   4   6   7   9   5   4  

 6   8   3  12   5   6   5  14   5   8  15   1   9  10   5   7   5   6   2   9   4   7   5  15   4   2   1   4  13   1   9  12  

 6  14   6   3   6   7  10  14   5  12  11   2   3  13   9  10  11   7   5   4   7   3  10  15  14  11   2   4   5  15   1   6  

 1  12  14   7   9  15   8   8   6   1   9   9  14   7   8   2  12   7   2   6  11   6   3   9  12   8   4   8  14   4  12   9  

 6  11   6  10  14  13   8   8   4   6  15   7   8  12  15   8  11  11   1   2   7   9   9   4   1   7   4   1  13   7  12  14  

 1   5  10   2   6   8   1   5   2   2   4  11   9   2  14  10   9  11  11   1   4  14   9  15   8  11   8  12   7  12   6   6  

 7   3  13  11  15   7  14  11  15   8  12  11  11   5  10   8   8  10  10  12   8  13   8  10  12  10  11   8  14  14  11   3  

 1   5   7   8   3   7  11  13   3  13   5  11   7   3   4   2   6   3  12   3   9   6   4   7   5   7   9   2   4   9  15   4  

 4   1   1   7   8   9   7  15   6  12   4  11   7   1  12   2   2   1   3   5  13  12  14   5  14  14   3  11   8  14  12   2  

11  12  10  10   3  10   9  14   8  15   3  15   8   2   5   8   5  10   8  15   2  15   4   4   7   6  13  11  12  14   3   6  

14  13   5   2  14   1   6   4   5   5   1  13  15  15  13   3   2  12  14   7   6   3   9  10   3   9   2  15   1   7   1   1  

13   5  11   2   2   1  11   5   1   5  13  10  14   6   9  15   8  12  13  15  10   3  10  15  15   3   4   9   1   5   8  10  

 4   8   4   5  14  12  11  14   5   4   5   6  13   9   3  14   8  13  10   7   8   6   6  12  11  14  12   6  14  14   7  10  

Resultado DUT

    x      x      x      x      x      x      x      x      x      x      x      x      x      x      x      x      x      x      x      x      x      x      x      x      x      x      x      x      x      x      x      x  

    x      x      x      x      x      x      x      x      x      x      x      x      x      x      x      x      x      x      x      x      x      x      x      x      x      x      x      x      x      x      x      x  

    x      x      x      x      x      x      x      x      x      x      x      x      x      x      x      x      x      x      x      x      x      x      x      x      x      x      x      x      x      x      x      x  

    x      x      x      x      x      x      x      x      x      x      x      x      x      x      x      x      x      x      x      x      x      x      x      x      x      x      x      x      x      x      x      x  

    x      x      x      x      x      x      x      x      x      x      x      x      x      x      x      x      x      x      x      x      x      x      x      x      x      x      x      x      x      x      x      x  

    x      x      x      x      x      x      x      x      x      x      x      x      x      x      x      x      x      x      x      x      x      x      x      x      x      x      x      x      x      x      x      x  

    x      x      x      x      x      x      x      x      x      x      x      x      x      x      x      x      x      x      x      x      x      x      x      x      x      x      x      x      x      x      x      x  

    x      x      x      x      x      x      x      x      x      x      x      x      x      x      x      x      x      x      x      x      x      x      x      x      x      x      x      x      x      x      x      x  

    x      x      x      x      x      x      x      x      x      x      x      x      x      x      x      x      x      x      x      x      x      x      x      x      x      x      x      x      x      x      x      x  

    x      x      x      x      x      x      x      x      x      x      x      x      x      x      x      x      x      x      x      x      x      x      x      x      x      x      x      x      x      x      x      x  

    x      x      x      x      x      x      x      x      x      x      x      x      x      x      x      x      x      x      x      x      x      x      x      x      x      x      x      x      x      x      x      x  

    x      x      x      x      x      x      x      x      x      x      x      x      x      x      x      x      x      x      x      x      x      x      x      x      x      x      x      x      x      x      x      x  

    x      x      x      x      x      x      x      x      x      x      x      x      x      x      x      x      x      x      x      x      x      x      x      x      x      x      x      x      x      x      x      x  

    x      x      x      x      x      x      x      x      x      x      x      x      x      x      x      x      x      x      x      x      x      x      x      x      x      x      x      x      x      x      x      x  

    x      x      x      x      x      x      x      x      x      x      x      x      x      x      x      x      x      x      x      x      x      x      x      x      x      x      x      x      x      x      x      x  

    x      x      x      x      x      x      x      x      x      x      x      x      x      x      x      x      x      x      x      x      x      x      x      x      x      x      x      x      x      x      x      x  

    x      x      x      x      x      x      x      x      x      x      x      x      x      x      x      x      x      x      x      x      x      x      x      x      x      x      x      x      x      x      x      x  

    x      x      x      x      x      x      x      x      x      x      x      x      x      x      x      x      x      x      x      x      x      x      x      x      x      x      x      x      x      x      x      x  

    x      x      x      x      x      x      x      x      x      x      x      x      x      x      x      x      x      x      x      x      x      x      x      x      x      x      x      x      x      x      x      x  

    x      x      x      x      x      x      x      x      x      x      x      x      x      x      x      x      x      x      x      x      x      x      x      x      x      x      x      x      x      x      x      x  

    x      x      x      x      x      x      x      x      x      x      x      x      x      x      x      x      x      x      x      x      x      x      x      x      x      x      x      x      x      x      x      x  

    x      x      x      x      x      x      x      x      x      x      x      x      x      x      x      x      x      x      x      x      x      x      x      x      x      x      x      x      x      x      x      x  

    x      x      x      x      x      x      x      x      x      x      x      x      x      x      x      x      x      x      x      x      x      x      x      x      x      x      x      x      x      x      x      x  

    x      x      x      x      x      x      x      x      x      x      x      x      x      x      x      x      x      x      x      x      x      x      x      x      x      x      x      x      x      x      x      x  

    x      x      x      x      x      x      x      x      x      x      x      x      x      x      x      x      x      x      x      x      x      x      x      x      x      x      x      x      x      x      x      x  

    x      x      x      x      x      x      x      x      x      x      x      x      x      x      x      x      x      x      x      x      x      x      x      x      x      x      x      x      x      x      x      x  

    x      x      x      x      x      x      x      x      x      x      x      x      x      x      x      x      x      x      x      x      x      x      x      x      x      x      x      x      x      x      x      x  

    x      x      x      x      x      x      x      x      x      x      x      x      x      x      x      x      x      x      x      x      x      x      x      x      x      x      x      x      x      x      x      x  

    x      x      x      x      x      x      x      x      x      x      x      x      x      x      x      x      x      x      x      x      x      x      x      x      x      x      x      x      x      x      x      x  

    x      x      x      x      x      x      x      x      x      x      x      x      x      x      x      x      x      x      x      x      x      x      x      x      x      x      x      x      x      x      x      x  

    x      x      x      x      x      x      x      x      x      x      x      x      x      x      x      x      x      x      x      x      x      x      x      x      x      x      x      x      x      x      x      x  

    x      x      x      x      x      x      x      x      x      x      x      x      x      x      x      x      x      x      x      x      x      x      x      x      x      x      x      x      x      x      x      x  

Resultado REFMOD

    x      x      x      x      x      x      x      x      x      x      x      x      x      x      x      x      x      x      x      x      x      x      x      x      x      x      x      x      x      x      x      x  

    x      x      x      x      x      x      x      x      x      x      x      x      x      x      x      x      x      x      x      x      x      x      x      x      x      x      x      x      x      x      x      x  

    x      x      x      x      x      x      x      x      x      x      x      x      x      x      x      x      x      x      x      x      x      x      x      x      x      x      x      x      x      x      x      x  

    x      x      x      x      x      x      x      x      x      x      x      x      x      x      x      x      x      x      x      x      x      x      x      x      x      x      x      x      x      x      x      x  

    x      x      x      x      x      x      x      x      x      x      x      x      x      x      x      x      x      x      x      x      x      x      x      x      x      x      x      x      x      x      x      x  

    x      x      x      x      x      x      x      x      x      x      x      x      x      x      x      x      x      x      x      x      x      x      x      x      x      x      x      x      x      x      x      x  

    x      x      x      x      x      x      x      x      x      x      x      x      x      x      x      x      x      x      x      x      x      x      x      x      x      x      x      x      x      x      x      x  

    x      x      x      x      x      x      x      x      x      x      x      x      x      x      x      x      x      x      x      x      x      x      x      x      x      x      x      x      x      x      x      x  

    x      x      x      x      x      x      x      x      x      x      x      x      x      x      x      x      x      x      x      x      x      x      x      x      x      x      x      x      x      x      x      x  

    x      x      x      x      x      x      x      x      x      x      x      x      x      x      x      x      x      x      x      x      x      x      x      x      x      x      x      x      x      x      x      x  

    x      x      x      x      x      x      x      x      x      x      x      x      x      x      x      x      x      x      x      x      x      x      x      x      x      x      x      x      x      x      x      x  

    x      x      x      x      x      x      x      x      x      x      x      x      x      x      x      x      x      x      x      x      x      x      x      x      x      x      x      x      x      x      x      x  

    x      x      x      x      x      x      x      x      x      x      x      x      x      x      x      x      x      x      x      x      x      x      x      x      x      x      x      x      x      x      x      x  

    x      x      x      x      x      x      x      x      x      x      x      x      x      x      x      x      x      x      x      x      x      x      x      x      x      x      x      x      x      x      x      x  

    x      x      x      x      x      x      x      x      x      x      x      x      x      x      x      x      x      x      x      x      x      x      x      x      x      x      x      x      x      x      x      x  

    x      x      x      x      x      x      x      x      x      x      x      x      x      x      x      x      x      x      x      x      x      x      x      x      x      x      x      x      x      x      x      x  

    x      x      x      x      x      x      x      x      x      x      x      x      x      x      x      x      x      x      x      x      x      x      x      x      x      x      x      x      x      x      x      x  

    x      x      x      x      x      x      x      x      x      x      x      x      x      x      x      x      x      x      x      x      x      x      x      x      x      x      x      x      x      x      x      x  

    x      x      x      x      x      x      x      x      x      x      x      x      x      x      x      x      x      x      x      x      x      x      x      x      x      x      x      x      x      x      x      x  

    x      x      x      x      x      x      x      x      x      x      x      x      x      x      x      x      x      x      x      x      x      x      x      x      x      x      x      x      x      x      x      x  

    x      x      x      x      x      x      x      x      x      x      x      x      x      x      x      x      x      x      x      x      x      x      x      x      x      x      x      x      x      x      x      x  

    x      x      x      x      x      x      x      x      x      x      x      x      x      x      x      x      x      x      x      x      x      x      x      x      x      x      x      x      x      x      x      x  

    x      x      x      x      x      x      x      x      x      x      x      x      x      x      x      x      x      x      x      x      x      x      x      x      x      x      x      x      x      x      x      x  

    x      x      x      x      x      x      x      x      x      x      x      x      x      x      x      x      x      x      x      x      x      x      x      x      x      x      x      x      x      x      x      x  

    x      x      x      x      x      x      x      x      x      x      x      x      x      x      x      x      x      x      x      x      x      x      x      x      x      x      x      x      x      x      x      x  

    x      x      x      x      x      x      x      x      x      x      x      x      x      x      x      x      x      x      x      x      x      x      x      x      x      x      x      x      x      x      x      x  

    x      x      x      x      x      x      x      x      x      x      x      x      x      x      x      x      x      x      x      x      x      x      x      x      x      x      x      x      x      x      x      x  

    x      x      x      x      x      x      x      x      x      x      x      x      x      x      x      x      x      x      x      x      x      x      x      x      x      x      x      x      x      x      x      x  

    x      x      x      x      x      x      x      x      x      x      x      x      x      x      x      x      x      x      x      x      x      x      x      x      x      x      x      x      x      x      x      x  

    x      x      x      x      x      x      x      x      x      x      x      x      x      x      x      x      x      x      x      x      x      x      x      x      x      x      x      x      x      x      x      x  

    x      x      x      x      x      x      x      x      x      x      x      x      x      x      x      x      x      x      x      x      x      x      x      x      x      x      x      x      x      x      x      x  

    x      x      x      x      x      x      x      x      x      x      x      x      x      x      x      x      x      x      x      x      x      x      x      x      x      x      x      x      x      x      x      x  

Test(%)

Operadorando 1

 8   2   9  13  10  14  13   6   4   2   8   5   3   3  14   8   3  10   6   9  13   7   2   7   4  14   1  15   1   6   7  12  

 4   1  12   2  10   3  14  15   7   3   1   6  10   8   9  14  10   6   2  12   6   2  10  14  10  14  15  11   5   1  15   4  

 8   6   2   1  10  13   4  11   4  15   6  12  11  14  12   3   6  13   2   9  10  10   9   9  14   7   6   5  15   3  14  14  

 6  14   2   2   8   7  11  14   1   4   5   6   1   7   2  10   4  13   8   2   8   3  15  10  14   4  12  10   3  13   8  12  

 7  11   8  13   3  12  13   4   8  14   6   5  13  12  10   4   1  13  14  14  11   6   6  13   8   8   6   4  12  12  11  10  

 6  12   4   4   3   8  14  15  15  15   6   6  15  15   7  12  11   8  15   1   9   7  10   3   8   1   5  12   7   4   7   5  

14   6   8   2   3   3  11   2  11  11   3  12  10  10  10  10  14  10   5   2  12  15   5  12   1   7   7   6   1   3   5   4  

14   1   4   2  13  10  11  14  10   5   4   5  11   3  10  11  15   4   7   4   1  15   3   7  14   1   1  14   6  10  15   9  

 7  15  10  15   6   7   8   2  10  10  11   9  15  11   8   6   5   1   8   7  15  12   7   4  13   9  14   8   1   5   6  14  

 6   2  11   2   2   5  15   7   9   6  15  11  10   8   8   6   3  15  14   4   8   5   4   2  12   2   5   2   9  13  15   1  

 7   2   1   7   1   8   7  13   8  15  13   5   8  15  14  14  10   7  13  14   2   4   1  15   9  13   8   6   3  10   2  12  

12  12   6   7  13   2   1  14  12   7   2  14   8   4  11   6   4   8   6  14   7  13   1   7  12  14   9   3   6  11   8   6  

 5   3  10   1   9   9  11  10   5   9  12   3   5  10  10  14  11  12   6  11  10  15  14   8   5  15  11  12   7   7  10   2  

11   3  15   4   3   4   5   6   9  10  13   8   4   6   5   5   8  10   1  12  10  15   2  15   3   3  10  14  15  12   2   6  

11   5   7  13   2   3   2   9  12  13  13   1   4   2  14   4  15  14   7  13   7  14  10   4  12  13   3   4   3   3  11  14  

 2   3  11   6   5   9   6   6  13  11   2   5   4   2   9   3   4   3   3  15  11  10  14   1  14  12  11   5   5  14  13   4  

 3  11   5   4   1   8  13  15  10  11  14  15   6   6   8   2   8  11   7  12  13   1   8   1  13   1  11  14   2   3  11   3  

 3   4  11   4   9   9   5  11  10  15   5   1   7   1   6  15   6   3   9   5  11   2   3   1   1  10   4   1  10   5  15   6  

13   7  11   3  13   1  13   8  11   4  15   9   3   1   7   2   8   6  13   2   2   6  14   8  12  14  13  12  13   2  15  14  

15   5   1   6  13   4  11  14   7  15  15  11  15   8   7  14   4  11  13   4   6  11  10   3   7  15   5  13  15  15   6  15  

 4   9  12   3  14   1   1   9   4   9   1  15  11   7   2   5   3   9   1  10   7   8   4  14  10  10   3   2   6  11  14  10  

 6   4   1   9   9  12  14  15   9  13  12  11  14   2   6   4  11   2   6  14  15   6  11  12  15  11   9   2   6  13   5  11  

15   4  10  12   2   3   9   7   7   6  13  15  12  14   5  12  13   1   6   9   3   3   2   9   4  15  11   5  12   5   4   4  

 2   6  14   1   1  12   2   2  12  11  15   6  10   2   3  14   7   7   6  10   5   9   1  12   3   4   5   7   5  14   9  14  

 9   5   4  13  11  10   5  10  12  15  14   6   5  11  13  15   9   7  10   1  10  14   6   9   2  11   8   5   1   9   8   8  

10   5   4   8  14  10  15  13   7   2  12  10   9  11   5   9  10   9  10   2   6   7   8   3   1   2   3  12   3  12   3  13  

 2   3   6   3   6  11   3   3  14  11   7  12  12  14  11   1   2  13   4   4   6  11   7  15   8   4  15   3   7  15  15  12  

12  13   6   1   5   4  10  10  11   6   9  10  14  11   6  11  10  14   9   8  12   5   4  10   6   9   4   6  15   5   8  15  

 3   6   4   7   4  15   8   2   3   8   8  12  13  14   6  15  11  11   9   6   6  11   3   1   6  15  10  12   7  14   3   4  

13   8   2  14  11   8  11   9   3   8  10   6   9   3   5  10   6  13  11   7  10   2  11  13  11  12  11  12   9  15   9   2  

 1   1   2  14   3   2   5  12   9   1   9  15  15   5   1   4  10   2   2  13   6   2  10   3   6   1   5   7  11  13   3   9  

 1   2   7   6  10  15  14  11  11  11   1   4   9  10   9  13  10  11   8   4  12   6  10  14  10   3  13  15   6  15   7   5  

Operadorando 2

13   4   7   6   9  13   1   7   3   4  15   9   7  10   1   4  13   1   7  10   8   8   7  12   1   1  12  12   9   1   4   6  

10   5   5  12   7  13   6   1  10   2   1  11  12   8   9   7   6   4   6  14   2   6   2   9   7  12  14   8  15  11   4   5  

 3  15  10   6   5   7   3  14  15  11  10  10   2  14  13   9  11   7   7  10  12   6   3   8   3   5   2  13   2  14  14  12  

13   9   6   8   5   4   8   7   4  10   1   2  13   8   8   3  15   2   6  10   3   8   9  13   1   6  13   9  10   1  11   2  

 9   1   2   7   9  14  10   7   2   8  15   4   6   3  11   3  10   4   6   6   3   7   6  13   2  13  14   4   1  11   1  13  

 3   8   2   7  11   7  13   2  11   9   4   2   6  10  14  13  15  12  14   9  11  13  11  14   8  10  12   4  10   5  11   2  

 7  11   7   5   1  12  15  12   3   9  14   7   6  10   4   2   1  14  12   4  10  13  12   1   6   3   1  14  15   7   3   3  

13  13  10   3  14   7   1   1  15   5  14   7   9   9  12   2  14   2   5   9   2   5   7   7   9   2   2   6   3   3  14  14  

 6   8  14   2   4  10   7  14   7  15  14   3   9   4   2  15  10  11  15   3   9   1   3  14   2  15  15   3   7  12  13   8  

 8  15  12   7   3   4   3  13   6  12   5  15   3  12   3   4  14   1   9   8  12   7   4  12   1  14  12   3   2   7  11   8  

14  14  14  12   6   1  12   7   3   1   9  12   4  12   6   9  10  10   8   8   9  10  13   2   9   6   2   6   1   9   1   8  

 7   9   9   7   9  12   5  10   5  14   2   8  11   3  11  14   4  15   9  13   5   2  13   2   8  14   5   4  12  14  11  13  

15   5  12  15  10  12   8   6   2  14  14   7   5   9   7   8   8   8   7   6  10   5  14  15   6  11   8  14   4   5   3  15  

 9  13  15   1  14   4  13  11   9  14   7  12   6   8   9   6  11  13   2   2   3  14  11   2   4  15  15   7  15  11  10   4  

 4   5   1  14   2   5  14   9  15  14   5   5  12  13   3  12   4  15   8  12   2  12  13  10   3   1   3   1  11  13  10   8  

 3   1  12  14  12   2  10   3  13  15   8  11  14   5   3   3  15   9  14   1  11   1   5  11   2  14  14   5   7  15   2   3  

12  11  15   7  11   9  13  11   7   8  12  12  12   5   7   7   6   2   4  11  13  14   5   1   3  12  15   2   6   9  13  13  

 8   3  10  15   4  14  13   4   9   8  15   5   3   8  10   3   5   6  15   8  12   1  11   6  15  15   5   5   4  14   3  13  

 6   9   7  11   9   1  15  14   7  12   4   4  12   8   4   3   9  10  15  14   7  14  13   9  12  13  14   6  13  11   9  10  

13   8  11   1  15  12  11  10  15  12  12   5  14  15   7  15  10  10  11   1   6  11   9  11  11   8   5  13   4   6   9   5  

 6  12   3   2   3   6  14   8   9  10  10   2   3   4  11   2  15   3   1   8   9   2  13  14  14   6  11   5  13  15  10  10  

 4  13   3   7  10  15   7   5   4   8   8   5   6  15   8   8  14   2   3  12   9   7   9  14   9  13   8   4  10   1  13   1  

 6  11  13   9  15  10  10  13   5   6   8   9   1   9  12   1   8   1  10   3   9  10  10  15  11   1  11   8   9   1   1  11  

 4  15  10  13  13   2  13   8  15  13   8   8  11  13   9   1   7   4   9  12   2   6   3   6  12   4  12  10   8   4  15  13  

 4  12   7  15   7   7   7   5   8   6  15  12   6  15   4   2   9  13   7  13   2   8   3   4   8  12   8   1  12   6  14   5  

 3   2   8  14   7  14   6  12  13  12   3  14   9   9   1   8  13   7  15  10  15   4   6   1   6   6  12   3   2   8   4   5  

13  10  13   4   2  11   1  10  11   7   1  14   3   3  14   3  12  14   9   7  15  12  11   8  14   8  11   4   3   4  10  10  

 8   7   4   7   2   1  10   2  15  12   7   9  10   6   1   4  11  12  10   1   1   8   5   4   5   2  10   7  11   1   4   5  

 8   6  13   4   8   8   2  12  14   7   6   8   5   6   5   9   7  14  10   2   3  12  14   7   5   5   4  13  14  11   5   5  

 3   6  10   1   6  14   1   9  13   8  11  15  11   4   5   1   1  13   9  12   8   6   2   6  12  11  15  15   3   9   6   1  

14  11   3   9  13   4   8   6   7  10   5   6  14   1  14  10   1   6   9   1  14   7   7   3  11   4  11   1   9   6   8  15  

 4  14   7   4   7  12   4   9  14  10   8   4  10  12   4   7   3  13   6   8  14  10   4   1   3  12  10  10  10  15   7  12  

Resultado DUT

  195    275    478    673    277    325    926    946    768    724    807   1222   1378   1187   1424   1426   1224   1563   1558   1855   1827   1430   1670   2000   1886   1840   1723   1933   2223   2587   2148   2279  

  194    400    500    697    321    330    985   1048    870    720    720   1192   1203   1242   1201   1332   1290   1506   1449   1555   1429   1346   1493   1674   1806   1775   1798   1810   1991   2438   2089   1865  

  202    536    556    581    291    581    877    870    735    600    664   1179   1138   1260   1548   1490   1818   1808   1190   1769   1648   1720   1435   2063   1793   1949   1928   1880   1951   2300   2091   1787  

  273    404    562    750    355    563   1002    822    750    720    883   1322   1338   1412   1456   1342   1540   1526   1328   1818   1701   1835   1693   1870   1981   2038   1771   2059   2029   2436   2276   1949  

  279    344    517    680    432    551    931    812    832    636    808   1066   1284   1663   1512   1379   1406   1606   1465   1864   1706   1915   1625   1883   2175   1977   1976   2211   2099   2415   2317   2093  

  460    902    901   1119    572    766   1461   1264   1157   1116   1226   1469   1480   1678   1614   1742   1924   2055   1600   2027   2009   2092   1944   2291   2305   2181   1986   2128   2309   2842   2424   2236  

  368    712    738    975    559    749   1383    997   1199   1024   1163   1211   1349   1899   1533   1473   1741   1887   1597   1621   1822   1848   1620   1918   2028   1812   1882   1828   1938   2379   2054   1895  

  393    606    710    871    488    667   1089    917    850    768    978    906    961   1087   1200   1157   1355   1460   1082   1308   1278   1459   1217   1730   1419   1393   1303   1354   1532   1757   1401   1415  

  366    701    793   1082    711    893   1313   1399   1169   1229   1410   1464   1492   1917   1947   1680   2068   1929   1789   2131   2133   2024   1984   2309   2228   2057   2056   2082   2136   2551   2138   1926  

  455    553    747    967    660    897   1166    957    974    933   1094   1320   1171   1527   1697   1511   1754   1703   1331   1716   1748   1736   1558   1715   1728   1713   1678   1617   1913   2114   1794   1559  

  608    807    883   1040    807   1002   1521   1289   1536   1303   1570   1335   1476   1843   1814   1464   1999   2053   1891   2511   2120   1966   1750   2286   2252   1959   1919   2076   2262   2393   2381   1919  

  940    894    905   1259    759   1111   1532   1381   1319   1194   1491   1425   1822   1650   2158   1953   1766   2271   2013   2226   1941   1958   2059   2334   1963   2184   1918   1993   2092   2580   2104   2074  

  613    801    793   1110    653    962   1197   1224   1068   1023   1269   1428   1460   1558   1756   1577   1801   1988   1637   1968   1735   1672   1619   1898   1851   1865   1762   1740   1698   2266   1565   1528  

